fine_cnt/prj/fine_cnt.sim/sim_1/behav/xsim/tb_fine_counter_pwm.vcd
$date
   Sun Mar 29 00:12:38 2026
$end
$version
  2020.2
$end
$timescale
  1ps
$end
$scope module tb_fine_counter_pwm $end
$var reg 1 ! clk_400m $end
$var reg 1 " rst_n $end
$var reg 1 # pwm_signal $end
$var wire 7 $ fine_count_a [6:0] $end
$var wire 7 % fine_count_b [6:0] $end
$var wire 1 & valid_out $end
$var real 32 ' random_phase $end
$var integer 32 ( seed $end
$var parameter 0 ) CLK_400M_PERIOD $end
$var parameter 32 * PWM_PERIOD [31:0] $end
$var parameter 32 + SIM_TIME [31:0] $end
$scope module uut $end
$var wire 1 , clk_400m $end
$var wire 1 - rst_n $end
$var wire 1 . pwm_signal $end
$var reg 7 / fine_count_a [6:0] $end
$var reg 7 0 fine_count_b [6:0] $end
$var reg 1 1 valid_out $end
$var wire 80 2 delay_chain_a [79:0] $end
$var wire 80 3 delay_chain_b [79:0] $end
$var reg 80 4 sampled_chain_a [79:0] $end
$var reg 80 5 sampled_chain_b [79:0] $end
$var reg 1 6 pwm_d1 $end
$var reg 1 7 pwm_d2 $end
$var wire 1 8 rising_edge $end
$var wire 1 9 falling_edge $end
$var wire 21 : carry_chain_a [20:0] $end
$var wire 21 ; carry_chain_b [20:0] $end
$var parameter 32 < DELAY_STAGES [31:0] $end
$var parameter 32 = CARRY4_BLOCKS [31:0] $end
$scope function count_ones_80bit $end
$var reg 7 > count_ones_80bit [6:0] $end
$var reg 80 ? thermometer_code [79:0] $end
$var integer 32 @ j $end
$var reg 7 A count [6:0] $end
$upscope $end
$scope function count_ones_80bit_b $end
$var reg 7 B count_ones_80bit_b [6:0] $end
$var reg 80 C thermometer_code [79:0] $end
$var integer 32 D j $end
$var reg 7 E count [6:0] $end
$upscope $end
$upscope $end
$scope task generate_random_pwm $end
$var real 32 F phase_offset $end
$var real 32 G high_time $end
$var real 32 H low_time $end
$upscope $end
$upscope $end
$enddefinitions $end
#0
$dumpvars
0!
0"
0#
b0 $
b0 %
0&
r0 '
b10010001101000101011001111000 (
r2.5 )
b1100100 *
b1111101000 +
0,
0-
0.
b0 /
b0 0
01
b1111000011110000111100001111000011110000111100001111000011110000111100001111 2
b1111000011110000111100001111000011110000111100001111000011110000111100001111 3
b0 4
b0 5
06
07
08
09
bz10101010101010101010 :
bz10101010101010101010 ;
b1010000 <
b10100 =
bx >
bx ?
bx @
bx A
bx B
bx C
bx D
bx E
r0 F
r0 G
r0 H
$end
#1250
1!
1,
#2500
0!
0,
#3750
1!
1,
#5000
0!
0,
#6250
1!
1,
#7500
0!
0,
#8750
1!
1,
#10000
0!
0,
#11250
1!
1,
#12500
0!
0,
#13750
1!
1,
#15000
0!
0,
#16250
1!
1,
#17500
0!
0,
#18750
1!
1,
#20000
0!
1"
1#
r0.801 '
0,
1-
1.
b11110000111100001111000011110000111100001111000011110000111100001111000011110000 2
18
09
bz01010101010101010101 :
r0.801 F
r50.801 G
r49.199 H
#21250
1!
1&
1,
11
b1111000011110000111100001111000011110000111100001111000011110000111100001111 2
b11110000111100001111000011110000111100001111000011110000111100001111000011110000 4
b1111000011110000111100001111000011110000111100001111000011110000111100001111 5
16
08
09
bz10101010101010101010 :
b0 >
b0 ?
b1010000 @
b0 A
b0 B
b0 C
b1010000 D
b0 E
#22500
0!
0,
#23750
1!
b101000 $
b101000 %
1,
b101000 /
b101000 0
b1111000011110000111100001111000011110000111100001111000011110000111100001111 4
17
b101000 >
b11110000111100001111000011110000111100001111000011110000111100001111000011110000 ?
b1010000 @
b101000 A
b101000 B
b1111000011110000111100001111000011110000111100001111000011110000111100001111 C
b1010000 D
b101000 E
#25000
0!
0,
#26250
1!
1,
b1111000011110000111100001111000011110000111100001111000011110000111100001111 ?
b1010000 @
b101000 A
b1010000 D
b101000 E
#27500
0!
0,
#28750
1!
1,
b1010000 @
b101000 A
b1010000 D
b101000 E
#30000
0!
0,
#31250
1!
1,
b1010000 @
b101000 A
b1010000 D
b101000 E
#32500
0!
0,
#33750
1!
1,
b1010000 @
b101000 A
b1010000 D
b101000 E
#35000
0!
0,
#36250
1!
1,
b1010000 @
b101000 A
b1010000 D
b101000 E
#37500
0!
0,
#38750
1!
1,
b1010000 @
b101000 A
b1010000 D
b101000 E
#40000
0!
0,
#41250
1!
1,
b1010000 @
b101000 A
b1010000 D
b101000 E
#42500
0!
0,
#43750
1!
1,
b1010000 @
b101000 A
b1010000 D
b101000 E
#45000
0!
0,
#46250
1!
1,
b1010000 @
b101000 A
b1010000 D
b101000 E
#47500
0!
0,
#48750
1!
1,
b1010000 @
b101000 A
b1010000 D
b101000 E
#50000
0!
0,
#51250
1!
1,
b1010000 @
b101000 A
b1010000 D
b101000 E
#52500
0!
0,
#53750
1!
1,
b1010000 @
b101000 A
b1010000 D
b101000 E
#55000
0!
0,
#56250
1!
1,
b1010000 @
b101000 A
b1010000 D
b101000 E
#57500
0!
0,
#58750
1!
1,
b1010000 @
b101000 A
b1010000 D
b101000 E
#60000
0!
0,
#61250
1!
1,
b1010000 @
b101000 A
b1010000 D
b101000 E
#62500
0!
0,
#63750
1!
1,
b1010000 @
b101000 A
b1010000 D
b101000 E
#65000
0!
0,
#66250
1!
1,
b1010000 @
b101000 A
b1010000 D
b101000 E
#67500
0!
0,
#68750
1!
1,
b1010000 @
b101000 A
b1010000 D
b101000 E
#70000
0!
0,
#70801
0#
0.
b11110000111100001111000011110000111100001111000011110000111100001111000011110000 3
08
19
bz01010101010101010101 ;
#71250
1!
1,
b1111000011110000111100001111000011110000111100001111000011110000111100001111 3
b11110000111100001111000011110000111100001111000011110000111100001111000011110000 5
06
08
09
bz10101010101010101010 ;
b1010000 @
b101000 A
b1010000 D
b101000 E
#72500
0!
0,
#73750
1!
1,
b1111000011110000111100001111000011110000111100001111000011110000111100001111 5
07
b1010000 @
b101000 A
b11110000111100001111000011110000111100001111000011110000111100001111000011110000 C
b1010000 D
b101000 E
#75000
0!
0,
#76250
1!
1,
b1010000 @
b101000 A
b1111000011110000111100001111000011110000111100001111000011110000111100001111 C
b1010000 D
b101000 E
#77500
0!
0,
#78750
1!
1,
b1010000 @
b101000 A
b1010000 D
b101000 E
#80000
0!
0,
#81250
1!
1,
b1010000 @
b101000 A
b1010000 D
b101000 E
#82500
0!
0,
#83750
1!
1,
b1010000 @
b101000 A
b1010000 D
b101000 E
#85000
0!
0,
#86250
1!
1,
b1010000 @
b101000 A
b1010000 D
b101000 E
#87500
0!
0,
#88750
1!
1,
b1010000 @
b101000 A
b1010000 D
b101000 E
#90000
0!
0,
#91250
1!
1,
b1010000 @
b101000 A
b1010000 D
b101000 E
#92500
0!
0,
#93750
1!
1,
b1010000 @
b101000 A
b1010000 D
b101000 E
#95000
0!
0,
#96250
1!
1,
b1010000 @
b101000 A
b1010000 D
b101000 E
#97500
0!
0,
#98750
1!
1,
b1010000 @
b101000 A
b1010000 D
b101000 E
#100000
0!
0,
#101250
1!
1,
b1010000 @
b101000 A
b1010000 D
b101000 E
#102500
0!
0,
#103750
1!
1,
b1010000 @
b101000 A
b1010000 D
b101000 E
#105000
0!
0,
#106250
1!
1,
b1010000 @
b101000 A
b1010000 D
b101000 E
#107500
0!
0,
#108750
1!
1,
b1010000 @
b101000 A
b1010000 D
b101000 E
#110000
0!
0,
#111250
1!
1,
b1010000 @
b101000 A
b1010000 D
b101000 E
#112500
0!
0,
#113750
1!
1,
b1010000 @
b101000 A
b1010000 D
b101000 E
#115000
0!
0,
#116250
1!
1,
b1010000 @
b101000 A
b1010000 D
b101000 E
#117500
0!
0,
#118750
1!
1,
b1010000 @
b101000 A
b1010000 D
b101000 E
#120000
0!
0,
#121250
1!
1,
b1010000 @
b101000 A
b1010000 D
b101000 E
#122500
0!
0,
#123750
1!
1,
b1010000 @
b101000 A
b1010000 D
b101000 E
#125000
0!
0,
#126250
1!
1,
b1010000 @
b101000 A
b1010000 D
b101000 E
#127500
0!
0,
#128750
1!
1,
b1010000 @
b101000 A
b1010000 D
b101000 E
#130000
0!
1#
r1.71 '
0,
1.
b11110000111100001111000011110000111100001111000011110000111100001111000011110000 2
18
09
bz01010101010101010101 :
r1.71 F
r51.71 G
r48.29 H
#131250
1!
1,
b1111000011110000111100001111000011110000111100001111000011110000111100001111 2
b11110000111100001111000011110000111100001111000011110000111100001111000011110000 4
16
08
09
bz10101010101010101010 :
b1010000 @
b101000 A
b1010000 D
b101000 E
#132500
0!
0,
#133750
1!
1,
b1111000011110000111100001111000011110000111100001111000011110000111100001111 4
17
b11110000111100001111000011110000111100001111000011110000111100001111000011110000 ?
b1010000 @
b101000 A
b1010000 D
b101000 E
#135000
0!
0,
#136250
1!
1,
b1111000011110000111100001111000011110000111100001111000011110000111100001111 ?
b1010000 @
b101000 A
b1010000 D
b101000 E
#137500
0!
0,
#138750
1!
1,
b1010000 @
b101000 A
b1010000 D
b101000 E
#140000
0!
0,
#141250
1!
1,
b1010000 @
b101000 A
b1010000 D
b101000 E
#142500
0!
0,
#143750
1!
1,
b1010000 @
b101000 A
b1010000 D
b101000 E
#145000
0!
0,
#146250
1!
1,
b1010000 @
b101000 A
b1010000 D
b101000 E
#147500
0!
0,
#148750
1!
1,
b1010000 @
b101000 A
b1010000 D
b101000 E
#150000
0!
0,
#151250
1!
1,
b1010000 @
b101000 A
b1010000 D
b101000 E
#152500
0!
0,
#153750
1!
1,
b1010000 @
b101000 A
b1010000 D
b101000 E
#155000
0!
0,
#156250
1!
1,
b1010000 @
b101000 A
b1010000 D
b101000 E
#157500
0!
0,
#158750
1!
1,
b1010000 @
b101000 A
b1010000 D
b101000 E
#160000
0!
0,
#161250
1!
1,
b1010000 @
b101000 A
b1010000 D
b101000 E
#162500
0!
0,
#163750
1!
1,
b1010000 @
b101000 A
b1010000 D
b101000 E
#165000
0!
0,
#166250
1!
1,
b1010000 @
b101000 A
b1010000 D
b101000 E
#167500
0!
0,
#168750
1!
1,
b1010000 @
b101000 A
b1010000 D
b101000 E
#170000
0!
0,
#171250
1!
1,
b1010000 @
b101000 A
b1010000 D
b101000 E
#172500
0!
0,
#173750
1!
1,
b1010000 @
b101000 A
b1010000 D
b101000 E
#175000
0!
0,
#176250
1!
1,
b1010000 @
b101000 A
b1010000 D
b101000 E
#177500
0!
0,
#178750
1!
1,
b1010000 @
b101000 A
b1010000 D
b101000 E
#180000
0!
0,
#181250
1!
1,
b1010000 @
b101000 A
b1010000 D
b101000 E
#181710
0#
0.
b11110000111100001111000011110000111100001111000011110000111100001111000011110000 3
08
19
bz01010101010101010101 ;
#182500
0!
0,
#183750
1!
1,
b1111000011110000111100001111000011110000111100001111000011110000111100001111 3
b11110000111100001111000011110000111100001111000011110000111100001111000011110000 5
06
08
09
bz10101010101010101010 ;
b1010000 @
b101000 A
b1010000 D
b101000 E
#185000
0!
0,
#186250
1!
1,
b1111000011110000111100001111000011110000111100001111000011110000111100001111 5
07
b1010000 @
b101000 A
b11110000111100001111000011110000111100001111000011110000111100001111000011110000 C
b1010000 D
b101000 E
#187500
0!
0,
#188750
1!
1,
b1010000 @
b101000 A
b1111000011110000111100001111000011110000111100001111000011110000111100001111 C
b1010000 D
b101000 E
#190000
0!
0,
#191250
1!
1,
b1010000 @
b101000 A
b1010000 D
b101000 E
#192500
0!
0,
#193750
1!
1,
b1010000 @
b101000 A
b1010000 D
b101000 E
#195000
0!
0,
#196250
1!
1,
b1010000 @
b101000 A
b1010000 D
b101000 E
#197500
0!
0,
#198750
1!
1,
b1010000 @
b101000 A
b1010000 D
b101000 E
#200000
0!
0,
#201250
1!
1,
b1010000 @
b101000 A
b1010000 D
b101000 E
#202500
0!
0,
#203750
1!
1,
b1010000 @
b101000 A
b1010000 D
b101000 E
#205000
0!
0,
#206250
1!
1,
b1010000 @
b101000 A
b1010000 D
b101000 E
#207500
0!
0,
#208750
1!
1,
b1010000 @
b101000 A
b1010000 D
b101000 E
#210000
0!
0,
#211250
1!
1,
b1010000 @
b101000 A
b1010000 D
b101000 E
#212500
0!
0,
#213750
1!
1,
b1010000 @
b101000 A
b1010000 D
b101000 E
#215000
0!
0,
#216250
1!
1,
b1010000 @
b101000 A
b1010000 D
b101000 E
#217500
0!
0,
#218750
1!
1,
b1010000 @
b101000 A
b1010000 D
b101000 E
#220000
0!
0,
#221250
1!
1,
b1010000 @
b101000 A
b1010000 D
b101000 E
#222500
0!
0,
#223750
1!
1,
b1010000 @
b101000 A
b1010000 D
b101000 E
#225000
0!
0,
#226250
1!
1,
b1010000 @
b101000 A
b1010000 D
b101000 E
#227500
0!
0,
#228750
1!
1,
b1010000 @
b101000 A
b1010000 D
b101000 E
#230000
0!
0,
#231250
1!
1,
b1010000 @
b101000 A
b1010000 D
b101000 E
#232500
0!
0,
#233750
1!
1,
b1010000 @
b101000 A
b1010000 D
b101000 E
#235000
0!
0,
#236250
1!
1,
b1010000 @
b101000 A
b1010000 D
b101000 E
#237500
0!
0,
#238750
1!
1,
b1010000 @
b101000 A
b1010000 D
b101000 E
#240000
0!
1#
r2.343 '
0,
1.
b11110000111100001111000011110000111100001111000011110000111100001111000011110000 2
18
09
bz01010101010101010101 :
r2.343 F
r52.343 G
r47.657 H
#241250
1!
1,
b1111000011110000111100001111000011110000111100001111000011110000111100001111 2
b11110000111100001111000011110000111100001111000011110000111100001111000011110000 4
16
08
09
bz10101010101010101010 :
b1010000 @
b101000 A
b1010000 D
b101000 E
#242500
0!
0,
#243750
1!
1,
b1111000011110000111100001111000011110000111100001111000011110000111100001111 4
17
b11110000111100001111000011110000111100001111000011110000111100001111000011110000 ?
b1010000 @
b101000 A
b1010000 D
b101000 E
#245000
0!
0,
#246250
1!
1,
b1111000011110000111100001111000011110000111100001111000011110000111100001111 ?
b1010000 @
b101000 A
b1010000 D
b101000 E
#247500
0!
0,
#248750
1!
1,
b1010000 @
b101000 A
b1010000 D
b101000 E
#250000
0!
0,
#251250
1!
1,
b1010000 @
b101000 A
b1010000 D
b101000 E
#252500
0!
0,
#253750
1!
1,
b1010000 @
b101000 A
b1010000 D
b101000 E
#255000
0!
0,
#256250
1!
1,
b1010000 @
b101000 A
b1010000 D
b101000 E
#257500
0!
0,
#258750
1!
1,
b1010000 @
b101000 A
b1010000 D
b101000 E
#260000
0!
0,
#261250
1!
1,
b1010000 @
b101000 A
b1010000 D
b101000 E
#262500
0!
0,
#263750
1!
1,
b1010000 @
b101000 A
b1010000 D
b101000 E
#265000
0!
0,
#266250
1!
1,
b1010000 @
b101000 A
b1010000 D
b101000 E
#267500
0!
0,
#268750
1!
1,
b1010000 @
b101000 A
b1010000 D
b101000 E
#270000
0!
0,
#271250
1!
1,
b1010000 @
b101000 A
b1010000 D
b101000 E
#272500
0!
0,
#273750
1!
1,
b1010000 @
b101000 A
b1010000 D
b101000 E
#275000
0!
0,
#276250
1!
1,
b1010000 @
b101000 A
b1010000 D
b101000 E
#277500
0!
0,
#278750
1!
1,
b1010000 @
b101000 A
b1010000 D
b101000 E
#280000
0!
0,
#281250
1!
1,
b1010000 @
b101000 A
b1010000 D
b101000 E
#282500
0!
0,
#283750
1!
1,
b1010000 @
b101000 A
b1010000 D
b101000 E
#285000
0!
0,
#286250
1!
1,
b1010000 @
b101000 A
b1010000 D
b101000 E
#287500
0!
0,
#288750
1!
1,
b1010000 @
b101000 A
b1010000 D
b101000 E
#290000
0!
0,
#291250
1!
1,
b1010000 @
b101000 A
b1010000 D
b101000 E
#292343
0#
0.
b11110000111100001111000011110000111100001111000011110000111100001111000011110000 3
08
19
bz01010101010101010101 ;
#292500
0!
0,
#293750
1!
1,
b1111000011110000111100001111000011110000111100001111000011110000111100001111 3
b11110000111100001111000011110000111100001111000011110000111100001111000011110000 5
06
08
09
bz10101010101010101010 ;
b1010000 @
b101000 A
b1010000 D
b101000 E
#295000
0!
0,
#296250
1!
1,
b1111000011110000111100001111000011110000111100001111000011110000111100001111 5
07
b1010000 @
b101000 A
b11110000111100001111000011110000111100001111000011110000111100001111000011110000 C
b1010000 D
b101000 E
#297500
0!
0,
#298750
1!
1,
b1010000 @
b101000 A
b1111000011110000111100001111000011110000111100001111000011110000111100001111 C
b1010000 D
b101000 E
#300000
0!
0,
#301250
1!
1,
b1010000 @
b101000 A
b1010000 D
b101000 E
#302500
0!
0,
#303750
1!
1,
b1010000 @
b101000 A
b1010000 D
b101000 E
#305000
0!
0,
#306250
1!
1,
b1010000 @
b101000 A
b1010000 D
b101000 E
#307500
0!
0,
#308750
1!
1,
b1010000 @
b101000 A
b1010000 D
b101000 E
#310000
0!
0,
#311250
1!
1,
b1010000 @
b101000 A
b1010000 D
b101000 E
#312500
0!
0,
#313750
1!
1,
b1010000 @
b101000 A
b1010000 D
b101000 E
#315000
0!
0,
#316250
1!
1,
b1010000 @
b101000 A
b1010000 D
b101000 E
#317500
0!
0,
#318750
1!
1,
b1010000 @
b101000 A
b1010000 D
b101000 E
#320000
0!
0,
#321250
1!
1,
b1010000 @
b101000 A
b1010000 D
b101000 E
#322500
0!
0,
#323750
1!
1,
b1010000 @
b101000 A
b1010000 D
b101000 E
#325000
0!
0,
#326250
1!
1,
b1010000 @
b101000 A
b1010000 D
b101000 E
#327500
0!
0,
#328750
1!
1,
b1010000 @
b101000 A
b1010000 D
b101000 E
#330000
0!
0,
#331250
1!
1,
b1010000 @
b101000 A
b1010000 D
b101000 E
#332500
0!
0,
#333750
1!
1,
b1010000 @
b101000 A
b1010000 D
b101000 E
#335000
0!
0,
#336250
1!
1,
b1010000 @
b101000 A
b1010000 D
b101000 E
#337500
0!
0,
#338750
1!
1,
b1010000 @
b101000 A
b1010000 D
b101000 E
#340000
0!
0,
#341250
1!
1,
b1010000 @
b101000 A
b1010000 D
b101000 E
#342500
0!
0,
#343750
1!
1,
b1010000 @
b101000 A
b1010000 D
b101000 E
#345000
0!
0,
#346250
1!
1,
b1010000 @
b101000 A
b1010000 D
b101000 E
#347500
0!
0,
#348750
1!
1,
b1010000 @
b101000 A
b1010000 D
b101000 E
#350000
0!
1#
r0.053 '
0,
1.
b11110000111100001111000011110000111100001111000011110000111100001111000011110000 2
18
09
bz01010101010101010101 :
r0.053 F
r50.053 G
r49.947 H
#351250
1!
1,
b1111000011110000111100001111000011110000111100001111000011110000111100001111 2
b11110000111100001111000011110000111100001111000011110000111100001111000011110000 4
16
08
09
bz10101010101010101010 :
b1010000 @
b101000 A
b1010000 D
b101000 E
#352500
0!
0,
#353750
1!
1,
b1111000011110000111100001111000011110000111100001111000011110000111100001111 4
17
b11110000111100001111000011110000111100001111000011110000111100001111000011110000 ?
b1010000 @
b101000 A
b1010000 D
b101000 E
#355000
0!
0,
#356250
1!
1,
b1111000011110000111100001111000011110000111100001111000011110000111100001111 ?
b1010000 @
b101000 A
b1010000 D
b101000 E
#357500
0!
0,
#358750
1!
1,
b1010000 @
b101000 A
b1010000 D
b101000 E
#360000
0!
0,
#361250
1!
1,
b1010000 @
b101000 A
b1010000 D
b101000 E
#362500
0!
0,
#363750
1!
1,
b1010000 @
b101000 A
b1010000 D
b101000 E
#365000
0!
0,
#366250
1!
1,
b1010000 @
b101000 A
b1010000 D
b101000 E
#367500
0!
0,
#368750
1!
1,
b1010000 @
b101000 A
b1010000 D
b101000 E
#370000
0!
0,
#371250
1!
1,
b1010000 @
b101000 A
b1010000 D
b101000 E
#372500
0!
0,
#373750
1!
1,
b1010000 @
b101000 A
b1010000 D
b101000 E
#375000
0!
0,
#376250
1!
1,
b1010000 @
b101000 A
b1010000 D
b101000 E
#377500
0!
0,
#378750
1!
1,
b1010000 @
b101000 A
b1010000 D
b101000 E
#380000
0!
0,
#381250
1!
1,
b1010000 @
b101000 A
b1010000 D
b101000 E
#382500
0!
0,
#383750
1!
1,
b1010000 @
b101000 A
b1010000 D
b101000 E
#385000
0!
0,
#386250
1!
1,
b1010000 @
b101000 A
b1010000 D
b101000 E
#387500
0!
0,
#388750
1!
1,
b1010000 @
b101000 A
b1010000 D
b101000 E
#390000
0!
0,
#391250
1!
1,
b1010000 @
b101000 A
b1010000 D
b101000 E
#392500
0!
0,
#393750
1!
1,
b1010000 @
b101000 A
b1010000 D
b101000 E
#395000
0!
0,
#396250
1!
1,
b1010000 @
b101000 A
b1010000 D
b101000 E
#397500
0!
0,
#398750
1!
1,
b1010000 @
b101000 A
b1010000 D
b101000 E
#400000
0!
0,
#400053
0#
0.
b11110000111100001111000011110000111100001111000011110000111100001111000011110000 3
08
19
bz01010101010101010101 ;
#401250
1!
1,
b1111000011110000111100001111000011110000111100001111000011110000111100001111 3
b11110000111100001111000011110000111100001111000011110000111100001111000011110000 5
06
08
09
bz10101010101010101010 ;
b1010000 @
b101000 A
b1010000 D
b101000 E
#402500
0!
0,
#403750
1!
1,
b1111000011110000111100001111000011110000111100001111000011110000111100001111 5
07
b1010000 @
b101000 A
b11110000111100001111000011110000111100001111000011110000111100001111000011110000 C
b1010000 D
b101000 E
#405000
0!
0,
#406250
1!
1,
b1010000 @
b101000 A
b1111000011110000111100001111000011110000111100001111000011110000111100001111 C
b1010000 D
b101000 E
#407500
0!
0,
#408750
1!
1,
b1010000 @
b101000 A
b1010000 D
b101000 E
#410000
0!
0,
#411250
1!
1,
b1010000 @
b101000 A
b1010000 D
b101000 E
#412500
0!
0,
#413750
1!
1,
b1010000 @
b101000 A
b1010000 D
b101000 E
#415000
0!
0,
#416250
1!
1,
b1010000 @
b101000 A
b1010000 D
b101000 E
#417500
0!
0,
#418750
1!
1,
b1010000 @
b101000 A
b1010000 D
b101000 E
#420000
0!
0,
#421250
1!
1,
b1010000 @
b101000 A
b1010000 D
b101000 E
#422500
0!
0,
#423750
1!
1,
b1010000 @
b101000 A
b1010000 D
b101000 E
#425000
0!
0,
#426250
1!
1,
b1010000 @
b101000 A
b1010000 D
b101000 E
#427500
0!
0,
#428750
1!
1,
b1010000 @
b101000 A
b1010000 D
b101000 E
#430000
0!
0,
#431250
1!
1,
b1010000 @
b101000 A
b1010000 D
b101000 E
#432500
0!
0,
#433750
1!
1,
b1010000 @
b101000 A
b1010000 D
b101000 E
#435000
0!
0,
#436250
1!
1,
b1010000 @
b101000 A
b1010000 D
b101000 E
#437500
0!
0,
#438750
1!
1,
b1010000 @
b101000 A
b1010000 D
b101000 E
#440000
0!
0,
#441250
1!
1,
b1010000 @
b101000 A
b1010000 D
b101000 E
#442500
0!
0,
#443750
1!
1,
b1010000 @
b101000 A
b1010000 D
b101000 E
#445000
0!
0,
#446250
1!
1,
b1010000 @
b101000 A
b1010000 D
b101000 E
#447500
0!
0,
#448750
1!
1,
b1010000 @
b101000 A
b1010000 D
b101000 E
#450000
0!
0,
#451250
1!
1,
b1010000 @
b101000 A
b1010000 D
b101000 E
#452500
0!
0,
#453750
1!
1,
b1010000 @
b101000 A
b1010000 D
b101000 E
#455000
0!
0,
#456250
1!
1,
b1010000 @
b101000 A
b1010000 D
b101000 E
#457500
0!
0,
#458750
1!
1,
b1010000 @
b101000 A
b1010000 D
b101000 E
#460000
0!
1#
r0.359 '
0,
1.
b11110000111100001111000011110000111100001111000011110000111100001111000011110000 2
18
09
bz01010101010101010101 :
r0.359 F
r50.359 G
r49.641 H
#461250
1!
1,
b1111000011110000111100001111000011110000111100001111000011110000111100001111 2
b11110000111100001111000011110000111100001111000011110000111100001111000011110000 4
16
08
09
bz10101010101010101010 :
b1010000 @
b101000 A
b1010000 D
b101000 E
#462500
0!
0,
#463750
1!
1,
b1111000011110000111100001111000011110000111100001111000011110000111100001111 4
17
b11110000111100001111000011110000111100001111000011110000111100001111000011110000 ?
b1010000 @
b101000 A
b1010000 D
b101000 E
#465000
0!
0,
#466250
1!
1,
b1111000011110000111100001111000011110000111100001111000011110000111100001111 ?
b1010000 @
b101000 A
b1010000 D
b101000 E
#467500
0!
0,
#468750
1!
1,
b1010000 @
b101000 A
b1010000 D
b101000 E
#470000
0!
0,
#471250
1!
1,
b1010000 @
b101000 A
b1010000 D
b101000 E
#472500
0!
0,
#473750
1!
1,
b1010000 @
b101000 A
b1010000 D
b101000 E
#475000
0!
0,
#476250
1!
1,
b1010000 @
b101000 A
b1010000 D
b101000 E
#477500
0!
0,
#478750
1!
1,
b1010000 @
b101000 A
b1010000 D
b101000 E
#480000
0!
0,
#481250
1!
1,
b1010000 @
b101000 A
b1010000 D
b101000 E
#482500
0!
0,
#483750
1!
1,
b1010000 @
b101000 A
b1010000 D
b101000 E
#485000
0!
0,
#486250
1!
1,
b1010000 @
b101000 A
b1010000 D
b101000 E
#487500
0!
0,
#488750
1!
1,
b1010000 @
b101000 A
b1010000 D
b101000 E
#490000
0!
0,
#491250
1!
1,
b1010000 @
b101000 A
b1010000 D
b101000 E
#492500
0!
0,
#493750
1!
1,
b1010000 @
b101000 A
b1010000 D
b101000 E
#495000
0!
0,
#496250
1!
1,
b1010000 @
b101000 A
b1010000 D
b101000 E
#497500
0!
0,
#498750
1!
1,
b1010000 @
b101000 A
b1010000 D
b101000 E
#500000
0!
0,
#501250
1!
1,
b1010000 @
b101000 A
b1010000 D
b101000 E
#502500
0!
0,
#503750
1!
1,
b1010000 @
b101000 A
b1010000 D
b101000 E
#505000
0!
0,
#506250
1!
1,
b1010000 @
b101000 A
b1010000 D
b101000 E
#507500
0!
0,
#508750
1!
1,
b1010000 @
b101000 A
b1010000 D
b101000 E
#510000
0!
0,
#510359
0#
0.
b11110000111100001111000011110000111100001111000011110000111100001111000011110000 3
08
19
bz01010101010101010101 ;
#511250
1!
1,
b1111000011110000111100001111000011110000111100001111000011110000111100001111 3
b11110000111100001111000011110000111100001111000011110000111100001111000011110000 5
06
08
09
bz10101010101010101010 ;
b1010000 @
b101000 A
b1010000 D
b101000 E
#512500
0!
0,
#513750
1!
1,
b1111000011110000111100001111000011110000111100001111000011110000111100001111 5
07
b1010000 @
b101000 A
b11110000111100001111000011110000111100001111000011110000111100001111000011110000 C
b1010000 D
b101000 E
#515000
0!
0,
#516250
1!
1,
b1010000 @
b101000 A
b1111000011110000111100001111000011110000111100001111000011110000111100001111 C
b1010000 D
b101000 E
#517500
0!
0,
#518750
1!
1,
b1010000 @
b101000 A
b1010000 D
b101000 E
#520000
0!
0,
#521250
1!
1,
b1010000 @
b101000 A
b1010000 D
b101000 E
#522500
0!
0,
#523750
1!
1,
b1010000 @
b101000 A
b1010000 D
b101000 E
#525000
0!
0,
#526250
1!
1,
b1010000 @
b101000 A
b1010000 D
b101000 E
#527500
0!
0,
#528750
1!
1,
b1010000 @
b101000 A
b1010000 D
b101000 E
#530000
0!
0,
#531250
1!
1,
b1010000 @
b101000 A
b1010000 D
b101000 E
#532500
0!
0,
#533750
1!
1,
b1010000 @
b101000 A
b1010000 D
b101000 E
#535000
0!
0,
#536250
1!
1,
b1010000 @
b101000 A
b1010000 D
b101000 E
#537500
0!
0,
#538750
1!
1,
b1010000 @
b101000 A
b1010000 D
b101000 E
#540000
0!
0,
#541250
1!
1,
b1010000 @
b101000 A
b1010000 D
b101000 E
#542500
0!
0,
#543750
1!
1,
b1010000 @
b101000 A
b1010000 D
b101000 E
#545000
0!
0,
#546250
1!
1,
b1010000 @
b101000 A
b1010000 D
b101000 E
#547500
0!
0,
#548750
1!
1,
b1010000 @
b101000 A
b1010000 D
b101000 E
#550000
0!
0,
#551250
1!
1,
b1010000 @
b101000 A
b1010000 D
b101000 E
#552500
0!
0,
#553750
1!
1,
b1010000 @
b101000 A
b1010000 D
b101000 E
#555000
0!
0,
#556250
1!
1,
b1010000 @
b101000 A
b1010000 D
b101000 E
#557500
0!
0,
#558750
1!
1,
b1010000 @
b101000 A
b1010000 D
b101000 E
#560000
0!
0,
#561250
1!
1,
b1010000 @
b101000 A
b1010000 D
b101000 E
#562500
0!
0,
#563750
1!
1,
b1010000 @
b101000 A
b1010000 D
b101000 E
#565000
0!
0,
#566250
1!
1,
b1010000 @
b101000 A
b1010000 D
b101000 E
#567500
0!
0,
#568750
1!
1,
b1010000 @
b101000 A
b1010000 D
b101000 E
#570000
0!
1#
r0.208 '
0,
1.
b11110000111100001111000011110000111100001111000011110000111100001111000011110000 2
18
09
bz01010101010101010101 :
r0.208 F
r50.208 G
r49.792 H
#571250
1!
1,
b1111000011110000111100001111000011110000111100001111000011110000111100001111 2
b11110000111100001111000011110000111100001111000011110000111100001111000011110000 4
16
08
09
bz10101010101010101010 :
b1010000 @
b101000 A
b1010000 D
b101000 E
#572500
0!
0,
#573750
1!
1,
b1111000011110000111100001111000011110000111100001111000011110000111100001111 4
17
b11110000111100001111000011110000111100001111000011110000111100001111000011110000 ?
b1010000 @
b101000 A
b1010000 D
b101000 E
#575000
0!
0,
#576250
1!
1,
b1111000011110000111100001111000011110000111100001111000011110000111100001111 ?
b1010000 @
b101000 A
b1010000 D
b101000 E
#577500
0!
0,
#578750
1!
1,
b1010000 @
b101000 A
b1010000 D
b101000 E
#580000
0!
0,
#581250
1!
1,
b1010000 @
b101000 A
b1010000 D
b101000 E
#582500
0!
0,
#583750
1!
1,
b1010000 @
b101000 A
b1010000 D
b101000 E
#585000
0!
0,
#586250
1!
1,
b1010000 @
b101000 A
b1010000 D
b101000 E
#587500
0!
0,
#588750
1!
1,
b1010000 @
b101000 A
b1010000 D
b101000 E
#590000
0!
0,
#591250
1!
1,
b1010000 @
b101000 A
b1010000 D
b101000 E
#592500
0!
0,
#593750
1!
1,
b1010000 @
b101000 A
b1010000 D
b101000 E
#595000
0!
0,
#596250
1!
1,
b1010000 @
b101000 A
b1010000 D
b101000 E
#597500
0!
0,
#598750
1!
1,
b1010000 @
b101000 A
b1010000 D
b101000 E
#600000
0!
0,
#601250
1!
1,
b1010000 @
b101000 A
b1010000 D
b101000 E
#602500
0!
0,
#603750
1!
1,
b1010000 @
b101000 A
b1010000 D
b101000 E
