fine_cnt/prj/fine_cnt.sim/sim_1/behav/xsim/tb_tdc_narrow_pulse.vcd
$date
   Sun Mar 29 15:22:20 2026
$end
$version
  2020.2
$end
$timescale
  1ps
$end
$scope module tb_tdc_narrow_pulse $end
$var reg 1 ! clk_400m $end
$var reg 1 " rst_n $end
$var reg 1 # pwm_in $end
$var wire 7 $ fine_count_a [6:0] $end
$var wire 7 % fine_count_b [6:0] $end
$var wire 1 & valid_out $end
$var real 32 ' pulse_start_time $end
$var real 32 ( pulse_width_real $end
$var real 32 ) phase_offset_real $end
$var integer 32 * rand_width $end
$var integer 32 + rand_phase $end
$var integer 32 , interval $end
$var real 32 - start_time $end
$var real 32 . end_time $end
$var real 32 / actual_width $end
$var integer 32 0 phase_bin $end
$var integer 32 1 width_bin $end
$var integer 32 2 phase_count $end
$var integer 32 3 width_count $end
$var parameter 32 4 CLK_400M_PERIOD [31:0] $end
$var parameter 32 5 SIM_TIME [31:0] $end
$var parameter 32 6 MIN_PULSE_WIDTH [31:0] $end
$var parameter 32 7 MAX_PULSE_WIDTH [31:0] $end
$var parameter 32 8 MIN_PHASE_OFFSET [31:0] $end
$var parameter 32 9 MAX_PHASE_OFFSET [31:0] $end
$scope module uut $end
$var wire 1 : clk_400m $end
$var wire 1 ; rst_n $end
$var wire 1 < pwm_signal $end
$var reg 7 = fine_count_a [6:0] $end
$var reg 7 > fine_count_b [6:0] $end
$var reg 1 ? valid_out $end
$var wire 80 @ delay_chain_a [79:0] $end
$var wire 80 A delay_chain_b [79:0] $end
$var reg 80 B sampled_chain_a [79:0] $end
$var reg 80 C sampled_chain_b [79:0] $end
$var reg 1 D pwm_d1 $end
$var reg 1 E pwm_d2 $end
$var wire 1 F rising_edge $end
$var wire 1 G falling_edge $end
$var wire 21 H carry_chain_a [20:0] $end
$var wire 21 I carry_chain_b [20:0] $end
$var parameter 32 J DELAY_STAGES [31:0] $end
$var parameter 32 K CARRY4_BLOCKS [31:0] $end
$scope function count_ones_80bit $end
$var reg 7 L count_ones_80bit [6:0] $end
$var reg 80 M thermometer_code [79:0] $end
$var integer 32 N j $end
$var reg 7 O count [6:0] $end
$upscope $end
$scope function count_ones_80bit_b $end
$var reg 7 P count_ones_80bit_b [6:0] $end
$var reg 80 Q thermometer_code [79:0] $end
$var integer 32 R j $end
$var reg 7 S count [6:0] $end
$upscope $end
$upscope $end
$scope task generate_narrow_pulse $end
$var real 32 T phase_offset $end
$var real 32 U pulse_width $end
$upscope $end
$upscope $end
$enddefinitions $end
#0
$dumpvars
0!
0"
0#
b0 $
b0 %
0&
r0 '
r0 (
r0 )
bx *
bx +
bx ,
r0 -
r0 .
r0 /
bx 0
bx 1
b0 2
b0 3
b100111000100 4
b10011000100101101000000 5
b100101100 6
b100101100000 7
b1010 8
b100110111010 9
0:
0;
0<
b0 =
b0 >
0?
b11111111111111111111111111111111111111111111111111111111111111111111111111111111 @
b11111111111111111111111111111111111111111111111111111111111111111111111111111111 A
b0 B
b0 C
0D
0E
0F
0G
b0z H
b0z I
b1010000 J
b10100 K
bx L
bx M
bx N
bx O
bx P
bx Q
bx R
bx S
r0 T
r0 U
$end
#1250
1!
1:
#2500
0!
0:
#3750
1!
1:
#5000
0!
0:
#6250
1!
1:
#7500
0!
0:
#8750
1!
1:
#10000
0!
1"
r10841 '
r1951 (
r841 )
b11110011111 *
b1101001001 +
0:
1;
r841 T
r1951 U
#10841
1#
r10841 -
b1010100 0
b1 2
1<
b0 @
1F
0G
b11111111111111111111z H
#11250
1!
1&
1:
1?
b11111111111111111111111111111111111111111111111111111111111111111111111111111111 @
b11111111111111111111111111111111111111111111111111111111111111111111111111111111 C
1D
0F
0G
b0z H
b0 L
b0 M
b1010000 N
b0 O
b0 P
b0 Q
b1010000 R
b0 S
#12500
0!
0:
#12792
0#
b1110101001100 ,
r12792 .
r1951 /
b11110011111 1
b1 3
0<
b0 A
0F
1G
b11111111111111111111z I
#13750
1!
b1010000 %
1:
b1010000 >
b11111111111111111111111111111111111111111111111111111111111111111111111111111111 A
b11111111111111111111111111111111111111111111111111111111111111111111111111111111 B
b0 C
0D
1E
0F
0G
b0z I
b1010000 N
b1010000 P
b11111111111111111111111111111111111111111111111111111111111111111111111111111111 Q
b1010000 R
b1010000 S
#15000
0!
0:
#16250
1!
b1010000 $
b0 %
1:
b1010000 =
b0 >
b11111111111111111111111111111111111111111111111111111111111111111111111111111111 C
0E
b1010000 L
b11111111111111111111111111111111111111111111111111111111111111111111111111111111 M
b1010000 N
b1010000 O
b0 P
b0 Q
b1010000 R
b0 S
#17500
0!
0:
#18750
1!
b1010000 %
1:
b1010000 >
b1010000 N
b1010000 O
b1010000 P
b11111111111111111111111111111111111111111111111111111111111111111111111111111111 Q
b1010000 R
b1010000 S
#20000
0!
0:
#20292
r20746 '
r1084 (
r454 )
b10000111100 *
b111000110 +
r454 T
r1084 U
#20746
1#
r20746 -
b101101 0
b10 2
1<
b0 @
1F
0G
b11111111111111111111z H
#21250
1!
1:
b11111111111111111111111111111111111111111111111111111111111111111111111111111111 @
b0 B
1D
0F
0G
b0z H
b1010000 N
b1010000 O
b1010000 R
b1010000 S
#21830
0#
r21830 .
r1084 /
b10000111100 1
b10 3
0<
b0 A
0F
1G
b11111111111111111111z I
#22500
0!
0:
#23750
1!
b0 $
1:
b0 =
b11111111111111111111111111111111111111111111111111111111111111111111111111111111 A
b11111111111111111111111111111111111111111111111111111111111111111111111111111111 B
b0 C
0D
1E
0F
0G
b0z I
b0 L
b0 M
b1010000 N
b0 O
b1010000 R
b1010000 S
#25000
0!
0:
#26250
1!
b1010000 $
b0 %
1:
b1010000 =
b0 >
b11111111111111111111111111111111111111111111111111111111111111111111111111111111 C
0E
b1010000 L
b11111111111111111111111111111111111111111111111111111111111111111111111111111111 M
b1010000 N
b1010000 O
b0 P
b0 Q
b1010000 R
b0 S
#27500
0!
0:
#28750
1!
b1010000 %
1:
b1010000 >
b1010000 N
b1010000 O
b1010000 P
b11111111111111111111111111111111111111111111111111111111111111111111111111111111 Q
b1010000 R
b1010000 S
#29330
r30889 '
r1266 (
r1559 )
b10011110010 *
b11000010111 +
r1559 T
r1266 U
#30000
0!
0:
#30889
1#
r30889 -
b10011100 0
b11 2
1<
b0 @
1F
0G
b11111111111111111111z H
#31250
1!
1:
b11111111111111111111111111111111111111111111111111111111111111111111111111111111 @
b0 B
1D
0F
0G
b0z H
b1010000 N
b1010000 O
b1010000 R
b1010000 S
#32155
0#
b1001110001000 ,
r32155 .
r1266 /
b10011110010 1
b11 3
0<
b0 A
0F
1G
b11111111111111111111z I
#32500
0!
0:
#33750
1!
b0 $
1:
b0 =
b11111111111111111111111111111111111111111111111111111111111111111111111111111111 A
b11111111111111111111111111111111111111111111111111111111111111111111111111111111 B
b0 C
0D
1E
0F
0G
b0z I
b0 L
b0 M
b1010000 N
b0 O
b1010000 R
b1010000 S
#35000
0!
0:
#36250
1!
b1010000 $
b0 %
1:
b1010000 =
b0 >
b11111111111111111111111111111111111111111111111111111111111111111111111111111111 C
0E
b1010000 L
b11111111111111111111111111111111111111111111111111111111111111111111111111111111 M
b1010000 N
b1010000 O
b0 P
b0 Q
b1010000 R
b0 S
#37155
r39520 '
r1386 (
r2365 )
b10101101010 *
b100100111101 +
r2365 T
r1386 U
#37500
0!
0:
#38750
1!
b1010000 %
1:
b1010000 >
b1010000 N
b1010000 O
b1010000 P
b11111111111111111111111111111111111111111111111111111111111111111111111111111111 Q
b1010000 R
b1010000 S
#39520
1#
r39520 -
b11101101 0
b100 2
1<
b0 @
1F
0G
b11111111111111111111z H
#40000
0!
0:
#40906
0#
b1110101001100 ,
r40906 .
r1386 /
b10101101010 1
b100 3
0<
b11111111111111111111111111111111111111111111111111111111111111111111111111111111 @
0F
0G
b0z H
#41250
1!
1:
b1010000 N
b1010000 O
b1010000 R
b1010000 S
#42500
0!
0:
#43750
1!
1:
b1010000 N
b1010000 O
b1010000 R
b1010000 S
#45000
0!
0:
#46250
1!
1:
b1010000 N
b1010000 O
b1010000 R
b1010000 S
#47500
0!
0:
#48406
r50415 '
r1635 (
r2009 )
b11001100011 *
b11111011001 +
r2009 T
r1635 U
#48750
1!
1:
b1010000 N
b1010000 O
b1010000 R
b1010000 S
#50000
0!
0:
#50415
1#
r50415 -
b11001001 0
b101 2
1<
b0 @
1F
0G
b11111111111111111111z H
#51250
1!
1:
b11111111111111111111111111111111111111111111111111111111111111111111111111111111 @
b0 B
1D
0F
0G
b0z H
b1010000 N
b1010000 O
b1010000 R
b1010000 S
#52050
0#
b11000011010100 ,
r52050 .
r1635 /
b11001100011 1
b101 3
0<
b0 A
0F
1G
b11111111111111111111z I
#52500
0!
0:
#53750
1!
b0 $
1:
b0 =
b11111111111111111111111111111111111111111111111111111111111111111111111111111111 A
b11111111111111111111111111111111111111111111111111111111111111111111111111111111 B
b0 C
0D
1E
0F
0G
b0z I
b0 L
b0 M
b1010000 N
b0 O
b1010000 R
b1010000 S
#55000
0!
0:
#56250
1!
b1010000 $
b0 %
1:
b1010000 =
b0 >
b11111111111111111111111111111111111111111111111111111111111111111111111111111111 C
0E
b1010000 L
b11111111111111111111111111111111111111111111111111111111111111111111111111111111 M
b1010000 N
b1010000 O
b0 P
b0 Q
b1010000 R
b0 S
#57500
0!
0:
#58750
1!
b1010000 %
1:
b1010000 >
b1010000 N
b1010000 O
b1010000 P
b11111111111111111111111111111111111111111111111111111111111111111111111111111111 Q
b1010000 R
b1010000 S
#60000
0!
0:
#61250
1!
1:
b1010000 N
b1010000 O
b1010000 R
b1010000 S
#62500
0!
0:
#63750
1!
1:
b1010000 N
b1010000 O
b1010000 R
b1010000 S
#64550
r65704 '
r432 (
r1154 )
b110110000 *
b10010000010 +
r1154 T
r432 U
#65000
0!
0:
#65704
1#
r65704 -
b1110011 0
b110 2
1<
b0 @
1F
0G
b11111111111111111111z H
#66136
0#
b1110101001100 ,
r66136 .
r432 /
b110110000 1
b110 3
0<
b11111111111111111111111111111111111111111111111111111111111111111111111111111111 @
0F
0G
b0z H
#66250
1!
1:
b1010000 N
b1010000 O
b1010000 R
b1010000 S
#67500
0!
0:
#68750
1!
1:
b1010000 N
b1010000 O
b1010000 R
b1010000 S
#70000
0!
0:
#71250
1!
1:
b1010000 N
b1010000 O
b1010000 R
b1010000 S
#72500
0!
0:
#73636
r74396 '
r1567 (
r760 )
b11000011111 *
b1011111000 +
r760 T
r1567 U
#73750
1!
1:
b1010000 N
b1010000 O
b1010000 R
b1010000 S
#74396
1#
r74396 -
b1001100 0
b111 2
1<
b0 @
1F
0G
b11111111111111111111z H
#75000
0!
0:
#75963
0#
b11000011010100 ,
r75963 .
r1567 /
b11000011111 1
b111 3
0<
b11111111111111111111111111111111111111111111111111111111111111111111111111111111 @
0F
0G
b0z H
#76250
1!
1:
b1010000 N
b1010000 O
b1010000 R
b1010000 S
#77500
0!
0:
#78750
1!
1:
b1010000 N
b1010000 O
b1010000 R
b1010000 S
#80000
0!
0:
#81250
1!
1:
b1010000 N
b1010000 O
b1010000 R
b1010000 S
#82500
0!
0:
#83750
1!
1:
b1010000 N
b1010000 O
b1010000 R
b1010000 S
#85000
0!
0:
#86250
1!
1:
b1010000 N
b1010000 O
b1010000 R
b1010000 S
#87500
0!
0:
#88463
r90225 '
r2292 (
r1762 )
b100011110100 *
b11011100010 +
r1762 T
r2292 U
#88750
1!
1:
b1010000 N
b1010000 O
b1010000 R
b1010000 S
#90000
0!
0:
#90225
1#
r90225 -
b10110000 0
b1000 2
1<
b0 @
1F
0G
b11111111111111111111z H
#91250
1!
1:
b11111111111111111111111111111111111111111111111111111111111111111111111111111111 @
b0 B
1D
0F
0G
b0z H
b1010000 N
b1010000 O
b1010000 R
b1010000 S
#92500
0!
0:
#92517
0#
b100111000100 ,
r92517 .
r2292 /
b100011110100 1
b1000 3
0<
b0 A
0F
1G
b11111111111111111111z I
#93750
1!
b0 $
1:
b0 =
b11111111111111111111111111111111111111111111111111111111111111111111111111111111 A
b11111111111111111111111111111111111111111111111111111111111111111111111111111111 B
b0 C
0D
1E
0F
0G
b0z I
b0 L
b0 M
b1010000 N
b0 O
b1010000 R
b1010000 S
#95000
0!
0:
#95017
r95541 '
r2129 (
r524 )
b100001010001 *
b1000001100 +
r524 T
r2129 U
#95541
1#
r95541 -
b110100 0
b1001 2
1<
b0 @
1F
0G
b11111111111111111111z H
#96250
1!
b1010000 $
b0 %
1:
b1010000 =
b0 >
b11111111111111111111111111111111111111111111111111111111111111111111111111111111 @
b0 B
b11111111111111111111111111111111111111111111111111111111111111111111111111111111 C
1D
0E
0F
0G
b0z H
b1010000 L
b11111111111111111111111111111111111111111111111111111111111111111111111111111111 M
b1010000 N
b1010000 O
b0 P
b0 Q
b1010000 R
b0 S
#97500
0!
0:
#97670
0#
b11000011010100 ,
r97670 .
r2129 /
b100001010001 1
b1001 3
0<
b0 A
0F
1G
b11111111111111111111z I
#98750
1!
b0 $
b1010000 %
1:
b0 =
b1010000 >
b11111111111111111111111111111111111111111111111111111111111111111111111111111111 A
b11111111111111111111111111111111111111111111111111111111111111111111111111111111 B
b0 C
0D
1E
0F
0G
b0z I
b0 L
b0 M
b1010000 N
b0 O
b1010000 P
b11111111111111111111111111111111111111111111111111111111111111111111111111111111 Q
b1010000 R
b1010000 S
#100000
0!
0:
#101250
1!
b1010000 $
b0 %
1:
b1010000 =
b0 >
b11111111111111111111111111111111111111111111111111111111111111111111111111111111 C
0E
b1010000 L
b11111111111111111111111111111111111111111111111111111111111111111111111111111111 M
b1010000 N
b1010000 O
b0 P
b0 Q
b1010000 R
b0 S
#102500
0!
0:
#103750
1!
b1010000 %
1:
b1010000 >
b1010000 N
b1010000 O
b1010000 P
b11111111111111111111111111111111111111111111111111111111111111111111111111111111 Q
b1010000 R
b1010000 S
#105000
0!
0:
#106250
1!
1:
b1010000 N
b1010000 O
b1010000 R
b1010000 S
#107500
0!
0:
#108750
1!
1:
b1010000 N
b1010000 O
b1010000 R
b1010000 S
#110000
0!
0:
#110170
r110301 '
r1512 (
r131 )
b10111101000 *
b10000011 +
r131 T
r1512 U
#110301
1#
r110301 -
b1101 0
b1010 2
1<
b0 @
1F
0G
b11111111111111111111z H
#111250
1!
1:
b11111111111111111111111111111111111111111111111111111111111111111111111111111111 @
b0 B
1D
0F
0G
b0z H
b1010000 N
b1010000 O
b1010000 R
b1010000 S
#111813
0#
r111813 .
r1512 /
b10111101000 1
b1010 3
0<
b0 A
0F
1G
b11111111111111111111z I
#112500
0!
0:
#113750
1!
b0 $
1:
b0 =
b11111111111111111111111111111111111111111111111111111111111111111111111111111111 A
b11111111111111111111111111111111111111111111111111111111111111111111111111111111 B
b0 C
0D
1E
0F
0G
b0z I
b0 L
b0 M
b1010000 N
b0 O
b1010000 R
b1010000 S
#115000
0!
0:
#116250
1!
b1010000 $
b0 %
1:
b1010000 =
b0 >
b11111111111111111111111111111111111111111111111111111111111111111111111111111111 C
0E
b1010000 L
b11111111111111111111111111111111111111111111111111111111111111111111111111111111 M
b1010000 N
b1010000 O
b0 P
b0 Q
b1010000 R
b0 S
#117500
0!
0:
#118750
1!
b1010000 %
1:
b1010000 >
b1010000 N
b1010000 O
b1010000 P
b11111111111111111111111111111111111111111111111111111111111111111111111111111111 Q
b1010000 R
b1010000 S
#120000
0!
0:
#121250
1!
1:
b1010000 N
b1010000 O
b1010000 R
b1010000 S
#122500
0!
0:
#123750
1!
1:
b1010000 N
b1010000 O
b1010000 R
b1010000 S
#124313
r124510 '
r1650 (
r197 )
b11001110010 *
b11000101 +
r197 T
r1650 U
#124510
1#
r124510 -
b10100 0
b1011 2
1<
b0 @
1F
0G
b11111111111111111111z H
#125000
0!
0:
#126160
0#
b10011100010000 ,
r126160 .
r1650 /
b11001110010 1
b1011 3
0<
b11111111111111111111111111111111111111111111111111111111111111111111111111111111 @
0F
0G
b0z H
#126250
1!
1:
b1010000 N
b1010000 O
b1010000 R
b1010000 S
#127500
0!
0:
#128750
1!
1:
b1010000 N
b1010000 O
b1010000 R
b1010000 S
#130000
0!
0:
#131250
1!
1:
b1010000 N
b1010000 O
b1010000 R
b1010000 S
#132500
0!
0:
#133750
1!
1:
b1010000 N
b1010000 O
b1010000 R
b1010000 S
#135000
0!
0:
#136160
r138114 '
r2148 (
r1954 )
b100001100100 *
b11110100010 +
r1954 T
r2148 U
#136250
1!
1:
b1010000 N
b1010000 O
b1010000 R
b1010000 S
#137500
0!
0:
#138114
1#
r138114 -
b11000011 0
b1100 2
1<
b0 @
1F
0G
b11111111111111111111z H
#138750
1!
1:
b11111111111111111111111111111111111111111111111111111111111111111111111111111111 @
b0 B
1D
0F
0G
b0z H
b1010000 N
b1010000 O
b1010000 R
b1010000 S
#140000
0!
0:
#140262
0#
b1001110001000 ,
r140262 .
r2148 /
b100001100100 1
b1100 3
0<
b0 A
0F
1G
b11111111111111111111z I
#141250
1!
b0 $
1:
b0 =
b11111111111111111111111111111111111111111111111111111111111111111111111111111111 A
b11111111111111111111111111111111111111111111111111111111111111111111111111111111 B
b0 C
0D
1E
0F
0G
b0z I
b0 L
b0 M
b1010000 N
b0 O
b1010000 R
b1010000 S
#142500
0!
0:
#143750
1!
b1010000 $
b0 %
1:
b1010000 =
b0 >
b11111111111111111111111111111111111111111111111111111111111111111111111111111111 C
0E
b1010000 L
b11111111111111111111111111111111111111111111111111111111111111111111111111111111 M
b1010000 N
b1010000 O
b0 P
b0 Q
b1010000 R
b0 S
#145000
0!
0:
#145262
r147012 '
r1191 (
r1750 )
b10010100111 *
b11011010110 +
r1750 T
r1191 U
#146250
1!
b1010000 %
1:
b1010000 >
b1010000 N
b1010000 O
b1010000 P
b11111111111111111111111111111111111111111111111111111111111111111111111111111111 Q
b1010000 R
b1010000 S
#147012
1#
r147012 -
b10101111 0
b1101 2
1<
b0 @
1F
0G
b11111111111111111111z H
#147500
0!
0:
#148203
0#
r148203 .
r1191 /
b10010100111 1
b1101 3
0<
b11111111111111111111111111111111111111111111111111111111111111111111111111111111 @
0F
0G
b0z H
#148750
1!
1:
b1010000 N
b1010000 O
b1010000 R
b1010000 S
#150000
0!
0:
#151250
1!
1:
b1010000 N
b1010000 O
b1010000 R
b1010000 S
#152500
0!
0:
#153203
r154905 '
r524 (
r1702 )
b1000001100 *
b11010100110 +
r1702 T
r524 U
#153750
1!
1:
b1010000 N
b1010000 O
b1010000 R
b1010000 S
#154905
1#
r154905 -
b10101010 0
b1110 2
1<
b0 @
1F
0G
b11111111111111111111z H
#155000
0!
0:
#155429
0#
b100111000100 ,
r155429 .
r524 /
b1000001100 1
b1110 3
0<
b11111111111111111111111111111111111111111111111111111111111111111111111111111111 @
0F
0G
b0z H
#156250
1!
1:
b1010000 N
b1010000 O
b1010000 R
b1010000 S
#157500
0!
0:
#157929
r158713 '
r1002 (
r784 )
b1111101010 *
b1100010000 +
r784 T
r1002 U
#158713
1#
r158713 -
b1001110 0
b1111 2
1<
b0 @
1F
0G
b11111111111111111111z H
#158750
1!
1:
b11111111111111111111111111111111111111111111111111111111111111111111111111111111 @
b0 B
1D
0F
0G
b0z H
b1010000 N
b1010000 O
b1010000 R
b1010000 S
#159715
0#
b1001110001000 ,
r159715 .
r1002 /
b1111101010 1
b1111 3
0<
b0 A
0F
1G
b11111111111111111111z I
#160000
0!
0:
#161250
1!
b0 $
1:
b0 =
b11111111111111111111111111111111111111111111111111111111111111111111111111111111 A
b11111111111111111111111111111111111111111111111111111111111111111111111111111111 B
b0 C
0D
1E
0F
0G
b0z I
b0 L
b0 M
b1010000 N
b0 O
b1010000 R
b1010000 S
#162500
0!
0:
#163750
1!
b1010000 $
b0 %
1:
b1010000 =
b0 >
b11111111111111111111111111111111111111111111111111111111111111111111111111111111 C
0E
b1010000 L
b11111111111111111111111111111111111111111111111111111111111111111111111111111111 M
b1010000 N
b1010000 O
b0 P
b0 Q
b1010000 R
b0 S
#164715
r164979 '
r1005 (
r264 )
b1111101101 *
b100001000 +
r264 T
r1005 U
#164979
1#
r164979 -
b11010 0
b10000 2
1<
b0 @
1F
0G
b11111111111111111111z H
#165000
0!
0:
#165984
0#
b100111000100 ,
r165984 .
r1005 /
b1111101101 1
b10000 3
0<
b11111111111111111111111111111111111111111111111111111111111111111111111111111111 @
0F
0G
b0z H
#166250
1!
b1010000 %
1:
b1010000 >
b1010000 N
b1010000 O
b1010000 P
b11111111111111111111111111111111111111111111111111111111111111111111111111111111 Q
b1010000 R
b1010000 S
#167500
0!
0:
#168484
r169500 '
r633 (
r1016 )
b1001111001 *
b1111111000 +
r1016 T
r633 U
#168750
1!
1:
b1010000 N
b1010000 O
b1010000 R
b1010000 S
#169500
1#
r169500 -
b1100110 0
b10001 2
1<
b0 @
1F
0G
b11111111111111111111z H
#170000
0!
0:
#170133
0#
b1001110001000 ,
r170133 .
r633 /
b1001111001 1
b10001 3
0<
b11111111111111111111111111111111111111111111111111111111111111111111111111111111 @
0F
0G
b0z H
#171250
1!
1:
b1010000 N
b1010000 O
b1010000 R
b1010000 S
#172500
0!
0:
#173750
1!
1:
b1010000 N
b1010000 O
b1010000 R
b1010000 S
#175000
0!
0:
#175133
r177172 '
r1895 (
r2039 )
b11101100111 *
b11111110111 +
r2039 T
r1895 U
#176250
1!
1:
b1010000 N
b1010000 O
b1010000 R
b1010000 S
#177172
1#
r177172 -
b11001100 0
b10010 2
1<
b0 @
1F
0G
b11111111111111111111z H
#177500
0!
0:
#178750
1!
1:
b11111111111111111111111111111111111111111111111111111111111111111111111111111111 @
b0 B
1D
0F
0G
b0z H
b1010000 N
b1010000 O
b1010000 R
b1010000 S
#179067
0#
b11000011010100 ,
r179067 .
r1895 /
b11101100111 1
b10010 3
0<
b0 A
0F
1G
b11111111111111111111z I
#180000
0!
0:
#181250
1!
b0 $
1:
b0 =
b11111111111111111111111111111111111111111111111111111111111111111111111111111111 A
b11111111111111111111111111111111111111111111111111111111111111111111111111111111 B
b0 C
0D
1E
0F
0G
b0z I
b0 L
b0 M
b1010000 N
b0 O
b1010000 R
b1010000 S
#182500
0!
0:
#183750
1!
b1010000 $
b0 %
1:
b1010000 =
b0 >
b11111111111111111111111111111111111111111111111111111111111111111111111111111111 C
0E
b1010000 L
b11111111111111111111111111111111111111111111111111111111111111111111111111111111 M
b1010000 N
b1010000 O
b0 P
b0 Q
b1010000 R
b0 S
#185000
0!
0:
#186250
1!
b1010000 %
1:
b1010000 >
b1010000 N
b1010000 O
b1010000 P
b11111111111111111111111111111111111111111111111111111111111111111111111111111111 Q
b1010000 R
b1010000 S
#187500
0!
0:
#188750
1!
1:
b1010000 N
b1010000 O
b1010000 R
b1010000 S
#190000
0!
0:
#191250
1!
1:
b1010000 N
b1010000 O
b1010000 R
b1010000 S
#191567
r191652 '
r1792 (
r85 )
b11100000000 *
b1010101 +
r85 T
r1792 U
#191652
1#
r191652 -
b1001 0
b10011 2
1<
b0 @
1F
0G
b11111111111111111111z H
#192500
0!
0:
#193444
0#
b1110101001100 ,
r193444 .
r1792 /
b11100000000 1
b10011 3
0<
b11111111111111111111111111111111111111111111111111111111111111111111111111111111 @
0F
0G
b0z H
#193750
1!
1:
b1010000 N
b1010000 O
b1010000 R
b1010000 S
#195000
0!
0:
#196250
1!
1:
b1010000 N
b1010000 O
b1010000 R
b1010000 S
#197500
0!
0:
#198750
1!
1:
b1010000 N
b1010000 O
b1010000 R
b1010000 S
#200000
0!
0:
#200944
r202448 '
r1225 (
r1504 )
b10011001001 *
b10111100000 +
r1504 T
r1225 U
#201250
1!
1:
b1010000 N
b1010000 O
b1010000 R
b1010000 S
#202448
1#
r202448 -
b10010110 0
b10100 2
1<
b0 @
1F
0G
b11111111111111111111z H
#202500
0!
0:
#203673
0#
b1001110001000 ,
r203673 .
r1225 /
b10011001001 1
b10100 3
0<
b11111111111111111111111111111111111111111111111111111111111111111111111111111111 @
0F
0G
b0z H
#203750
1!
1:
b1010000 N
b1010000 O
b1010000 R
b1010000 S
#205000
0!
0:
#206250
1!
1:
b1010000 N
b1010000 O
b1010000 R
b1010000 S
#207500
0!
0:
#208673
r211167 '
r2464 (
r2494 )
b100110100000 *
b100110111110 +
r2494 T
r2464 U
#208750
1!
1:
b1010000 N
b1010000 O
b1010000 R
b1010000 S
#210000
0!
0:
#211167
1#
r211167 -
b11111001 0
b10101 2
1<
b0 @
1F
0G
b11111111111111111111z H
#211250
1!
1:
b11111111111111111111111111111111111111111111111111111111111111111111111111111111 @
b0 B
1D
0F
0G
b0z H
b1010000 N
b1010000 O
b1010000 R
b1010000 S
#212500
0!
0:
#213631
0#
b100111000100 ,
r213631 .
r2464 /
b100110100000 1
0<
b0 A
0F
1G
b11111111111111111111z I
#213750
1!
b0 $
1:
b0 =
b11111111111111111111111111111111111111111111111111111111111111111111111111111111 A
b11111111111111111111111111111111111111111111111111111111111111111111111111111111 B
b0 C
0D
1E
0F
0G
b0z I
b0 L
b0 M
b1010000 N
b0 O
b1010000 R
b1010000 S
#215000
0!
0:
#216131
r218572 '
r2333 (
r2441 )
b100100011101 *
b100110001001 +
r2441 T
r2333 U
#216250
1!
b1010000 $
b0 %
1:
b1010000 =
b0 >
b11111111111111111111111111111111111111111111111111111111111111111111111111111111 C
0E
b1010000 L
b11111111111111111111111111111111111111111111111111111111111111111111111111111111 M
b1010000 N
b1010000 O
b0 P
b0 Q
b1010000 R
b0 S
#217500
0!
0:
#218572
1#
r218572 -
b11110100 0
b10110 2
1<
b0 @
1F
0G
b11111111111111111111z H
#218750
1!
b1010000 %
1:
b1010000 >
b11111111111111111111111111111111111111111111111111111111111111111111111111111111 @
b0 B
1D
0F
0G
b0z H
b1010000 N
b1010000 O
b1010000 P
b11111111111111111111111111111111111111111111111111111111111111111111111111111111 Q
b1010000 R
b1010000 S
#220000
0!
0:
#220905
0#
b1001110001000 ,
r220905 .
r2333 /
b100100011101 1
b10101 3
0<
b0 A
0F
1G
b11111111111111111111z I
#221250
1!
b0 $
1:
b0 =
b11111111111111111111111111111111111111111111111111111111111111111111111111111111 A
b11111111111111111111111111111111111111111111111111111111111111111111111111111111 B
b0 C
0D
1E
0F
0G
b0z I
b0 L
b0 M
b1010000 N
b0 O
b1010000 R
b1010000 S
#222500
0!
0:
#223750
1!
b1010000 $
b0 %
1:
b1010000 =
b0 >
b11111111111111111111111111111111111111111111111111111111111111111111111111111111 C
0E
b1010000 L
b11111111111111111111111111111111111111111111111111111111111111111111111111111111 M
b1010000 N
b1010000 O
b0 P
b0 Q
b1010000 R
b0 S
#225000
0!
0:
#225905
r228399 '
r2391 (
r2494 )
b100101010111 *
b100110111110 +
r2494 T
r2391 U
#226250
1!
b1010000 %
1:
b1010000 >
b1010000 N
b1010000 O
b1010000 P
b11111111111111111111111111111111111111111111111111111111111111111111111111111111 Q
b1010000 R
b1010000 S
#227500
0!
0:
#228399
1#
r228399 -
b11111001 0
1<
b0 @
1F
0G
b11111111111111111111z H
#228750
1!
1:
b11111111111111111111111111111111111111111111111111111111111111111111111111111111 @
b0 B
1D
0F
0G
b0z H
b1010000 N
b1010000 O
b1010000 R
b1010000 S
#230000
0!
0:
#230790
0#
b100111000100 ,
r230790 .
r2391 /
b100101010111 1
b10110 3
0<
b0 A
0F
1G
b11111111111111111111z I
#231250
1!
b0 $
1:
b0 =
b11111111111111111111111111111111111111111111111111111111111111111111111111111111 A
b11111111111111111111111111111111111111111111111111111111111111111111111111111111 B
b0 C
0D
1E
0F
0G
b0z I
b0 L
b0 M
b1010000 N
b0 O
b1010000 R
b1010000 S
#232500
0!
0:
#233290
r235743 '
r2401 (
r2453 )
b100101100001 *
b100110010101 +
r2453 T
r2401 U
#233750
1!
b1010000 $
b0 %
1:
b1010000 =
b0 >
b11111111111111111111111111111111111111111111111111111111111111111111111111111111 C
0E
b1010000 L
b11111111111111111111111111111111111111111111111111111111111111111111111111111111 M
b1010000 N
b1010000 O
b0 P
b0 Q
b1010000 R
b0 S
#235000
0!
0:
#235743
1#
r235743 -
b11110101 0
b10111 2
1<
b0 @
1F
0G
b11111111111111111111z H
#236250
1!
b1010000 %
1:
b1010000 >
b11111111111111111111111111111111111111111111111111111111111111111111111111111111 @
b0 B
1D
0F
0G
b0z H
b1010000 N
b1010000 O
b1010000 P
b11111111111111111111111111111111111111111111111111111111111111111111111111111111 Q
b1010000 R
b1010000 S
#237500
0!
0:
#238144
0#
b1001110001000 ,
r238144 .
r2401 /
b100101100001 1
0<
b0 A
0F
1G
b11111111111111111111z I
#238750
1!
b0 $
1:
b0 =
b11111111111111111111111111111111111111111111111111111111111111111111111111111111 A
b11111111111111111111111111111111111111111111111111111111111111111111111111111111 B
b0 C
0D
1E
0F
0G
b0z I
b0 L
b0 M
b1010000 N
b0 O
b1010000 R
b1010000 S
#240000
0!
0:
#241250
1!
b1010000 $
b0 %
1:
b1010000 =
b0 >
b11111111111111111111111111111111111111111111111111111111111111111111111111111111 C
0E
b1010000 L
b11111111111111111111111111111111111111111111111111111111111111111111111111111111 M
b1010000 N
b1010000 O
b0 P
b0 Q
b1010000 R
b0 S
#242500
0!
0:
#243144
r245592 '
r2334 (
r2448 )
b100100011110 *
b100110010000 +
r2448 T
r2334 U
#243750
1!
b1010000 %
1:
b1010000 >
b1010000 N
b1010000 O
b1010000 P
b11111111111111111111111111111111111111111111111111111111111111111111111111111111 Q
b1010000 R
b1010000 S
#245000
0!
0:
#245592
1#
r245592 -
1<
b0 @
1F
0G
b11111111111111111111z H
#246250
1!
1:
b11111111111111111111111111111111111111111111111111111111111111111111111111111111 @
b0 B
1D
0F
0G
b0z H
b1010000 N
b1010000 O
b1010000 R
b1010000 S
#247500
0!
0:
#247926
0#
r247926 .
r2334 /
b100100011110 1
b10111 3
0<
b0 A
0F
1G
b11111111111111111111z I
